
E:\htdocs\execute\gao>dir
 Volume in drive E is Work and entertainment
 Volume Serial Number is 204B-A444

 Directory of E:\htdocs\execute\gao

08/31/2011  06:51 PM    <DIR>          .
08/31/2011  06:51 PM    <DIR>          ..
08/31/2011  06:51 PM                 0 see.txt
               1 File(s)              0 bytes
               2 Dir(s)  21,111,529,472 bytes free
